{
   "page": 3,
   "pages": 3,
   "per_page": 9,
   "total": 27,
   "messages": [ 
      {
         "id": 19,
         "image": "/gallery/image-20.png",
         "title": "What to do when you are in pain",
         "date": "Dec 23, 2023",
         "length": "57mins",
         "link": "https://instagram.com/rcfui"
      },
      {
         "id": 20,
         "image": "/gallery/image-21.png",
         "title": "What to do when you are in pain",
         "date": "Dec 23, 2023",
         "length": "57mins",
         "link": "https://instagram.com/rcfui"
      },
      {
         "id": 21,
         "image": "/gallery/image-22.png",
         "title": "What to do when you are in pain",
         "date": "Dec 23, 2023",
         "length": "57mins",
         "link": "https://instagram.com/rcfui"
      },
      {
         "id": 22,
         "image": "/gallery/image-23.png",
         "title": "What to do when you are in pain",
         "date": "Dec 23, 2023",
         "length": "57mins",
         "link": "https://instagram.com/rcfui"
      },
      {
         "id": 23,
         "image": "/gallery/image-24.png",
         "title": "What to do when you are in pain",
         "date": "Dec 23, 2023",
         "length": "57mins",
         "link": "https://instagram.com/rcfui"
      },
      {
         "id": 24,
         "image": "/gallery/image-25.png",
         "title": "What to do when you are in pain",
         "date": "Dec 23, 2023",
         "length": "57mins",
         "link": "https://instagram.com/rcfui"
      },
      {
         "id": 25,
         "image": "/gallery/image-26.png",
         "title": "What to do when you are in pain",
         "date": "Dec 23, 2023",
         "length": "57mins",
         "link": "https://instagram.com/rcfui"
      },
      {
         "id": 26,
         "image": "/gallery/image-27.png",
         "title": "What to do when you are in pain",
         "date": "Dec 23, 2023",
         "length": "57mins",
         "link": "https://instagram.com/rcfui"
      },
      {
         "id": 27,
         "image": "/gallery/image-28.png",
         "title": "What to do when you are in pain",
         "date": "Dec 23, 2023",
         "length": "57mins",
         "link": "https://instagram.com/rcfui"
      }
   ]
}
