{
   "page": 2,
   "pages": 3,
   "per_page": 9,
   "total": 27,
   "messages": [
      {
         "id": 10,
         "image": "/gallery/image-11.png",
         "title": "What to do when you are in pain",
         "date": "Dec 23, 2023",
         "length": "57mins",
         "link": "https://instagram.com/rcfui"
      },
      {
         "id": 11,
         "image": "/gallery/image-12.png",
         "title": "What to do when you are in pain",
         "date": "Dec 23, 2023",
         "length": "57mins",
         "link": "https://instagram.com/rcfui"
      },
      {
         "id": 12,
         "image": "/gallery/image-13.png",
         "title": "What to do when you are in pain",
         "date": "Dec 23, 2023",
         "length": "57mins",
         "link": "https://instagram.com/rcfui"
      },
      {
         "id": 13,
         "image": "/gallery/image-14.png",
         "title": "What to do when you are in pain",
         "date": "Dec 23, 2023",
         "length": "57mins",
         "link": "https://instagram.com/rcfui"
      },
      {
         "id": 14,
         "image": "/gallery/image-15.png",
         "title": "What to do when you are in pain",
         "date": "Dec 23, 2023",
         "length": "57mins",
         "link": "https://instagram.com/rcfui"
      },
      {
         "id": 15,
         "image": "/gallery/image-16.png",
         "title": "What to do when you are in pain",
         "date": "Dec 23, 2023",
         "length": "57mins",
         "link": "https://instagram.com/rcfui"
      },
      {
         "id": 16,
         "image": "/gallery/image-17.png",
         "title": "What to do when you are in pain",
         "date": "Dec 23, 2023",
         "length": "57mins",
         "link": "https://instagram.com/rcfui"
      },
      {
         "id": 17,
         "image": "/gallery/image-18.png",
         "title": "What to do when you are in pain",
         "date": "Dec 23, 2023",
         "length": "57mins",
         "link": "https://instagram.com/rcfui"
      },
      {
         "id": 18,
         "image": "/gallery/image-19.png",
         "title": "What to do when you are in pain",
         "date": "Dec 23, 2023",
         "length": "57mins",
         "link": "https://instagram.com/rcfui"
      }
   ]
}
