{
   "page": 1,
   "pages": 3,
   "per_page": 9,
   "total": 24,
   "pictures": [
      {
         "id": 1,
         "url": "https://raw.githubusercontent.com/RCFUI/pictures/main/pictures/messages/image%202.png",
         "date": "November 30, 2023",
         "link": "https://drive.google.com"
      },
      {
         "id": 2,
         "url": "https://raw.githubusercontent.com/RCFUI/pictures/main/pictures/messages/image%203.png",
         "date": "December 15, 2023",
         "link": "https://drive.google.com"
      },
      {
         "id": 3,
         "url": "https://raw.githubusercontent.com/RCFUI/pictures/main/pictures/messages/image%204.png",
         "date": "December 30, 2023",
         "link": "https://drive.google.com"
      },
      {
         "id": 4,
         "url": "https://raw.githubusercontent.com/RCFUI/pictures/main/pictures/messages/image%205.png",
         "date": "January 15, 2024",
         "link": "https://drive.google.com"
      },
      {
         "id": 5,
         "url": "https://raw.githubusercontent.com/RCFUI/pictures/main/pictures/messages/image%206.png",
         "date": "January 30, 2024",
         "link": "https://drive.google.com"
      },
      {
         "id": 6,
         "url": "https://raw.githubusercontent.com/RCFUI/pictures/main/pictures/messages/image%207.png",
         "date": "February 15, 2024",
         "link": "https://drive.google.com"
      },
      {
         "id": 7,
         "url": "https://raw.githubusercontent.com/RCFUI/pictures/main/pictures/messages/image%208.png",
         "date": "February 30, 2024",
         "link": "https://drive.google.com"
      },
      {
         "id": 8,
         "url": "https://raw.githubusercontent.com/RCFUI/pictures/main/pictures/messages/image%209.png",
         "date": "March 15, 2024",
         "link": "https://drive.google.com"
      },
      {
         "id": 9,
         "url": "/gallery/image-10.png",
         "date": "March 30, 2024",
         "link": "https://drive.google.com"
      }
   ]
}
