{
    "page": 2,
    "pages": 2,
    "per_page": 4,
    "total": 10,
    "alumni": [
       {
          "id": 5,
          "url": "/about-us/r2k-top.png",
          "name": "Lorem Ipsum",
          "position": "President, RCFUI"
       },
       {
          "id": 6,
          "url": "/about-us/r2k-top.png",
          "name": "Lorem Ipsum",
          "position": "President, RCFUI"
       },
       {
          "id": 7,
          "url": "/about-us/r2k-top.png",
          "name": "Lorem Ipsum",
          "position": "President, RCFUI"
       },
       {
          "id": 8,
          "url": "/about-us/r2k-top.png",
          "name": "Lorem Ipsum",
          "position": "President, RCFUI"
       },
       {
          "id": 9,
          "url": "/about-us/r2k-top.png",
          "name": "Lorem Ipsum",
          "position": "President, RCFUI"
       },
       {
          "id": 10,
          "url": "/about-us/r2k-top.png",
          "name": "Lorem Ipsum",
          "position": "President, RCFUI"
       }
 
    ]
 }
 